<svg width="331" height="222" viewBox="0 0 331 222" fill="none" xmlns="http://www.w3.org/2000/svg">
<g clip-path="url(#clip0_78_814)">
<path d="M157.83 138.88L157.83 213.5L83.13 213.5L157.83 138.88Z" fill="white"/>
<path d="M-7.30723e-06 54.83L0 222L157.83 222L157.83 213.5L13.7 69.75L-7.30723e-06 54.83Z" fill="#15577A"/>
<path d="M8.5 138.96L8.5 213.5L83.2 213.5L83.2 138.96L8.5 138.96Z" fill="url(#paint0_linear_78_814)"/>
<path d="M83.21 213.5L8.5 213.5C8.5 185.93 41.83 172.13 61.32 191.62L83.2 213.5L83.21 213.5Z" fill="url(#paint1_linear_78_814)"/>
<path d="M8.5 138.92L83.21 138.92C83.21 166.49 49.88 180.29 30.39 160.8L8.51 138.92L8.5 138.92Z" fill="white"/>
<path d="M157.83 126.61L157.83 222L246.54 222L246.54 126.61L157.83 126.61Z" fill="url(#paint2_linear_78_814)"/>
<path d="M157.83 126.61L157.83 213.5L202.19 213.5L202.19 126.61L157.83 126.61Z" fill="url(#paint3_linear_78_814)"/>
<path d="M8.58996 64.26L72.83 64.26L157.83 149.26L157.83 213.5L152.64 208.31L8.58996 64.26Z" fill="url(#paint4_linear_78_814)"/>
<path d="M8.58997 64.26L72.81 64.26L72.81 0.0399752L8.58997 64.26Z" fill="#15577A"/>
<path d="M40.67 32.1L8.58996 32.1L8.58997 64.17L40.67 32.1Z" fill="url(#paint5_linear_78_814)"/>
<path d="M183.13 213.5C183.13 203.41 191.67 195.23 202.18 195.23C212.69 195.23 221.21 203.42 221.21 213.5L246.53 213.5C246.53 190 226.66 170.96 202.17 170.96C177.68 170.96 157.81 190 157.81 213.5L183.11 213.5L183.13 213.5Z" fill="url(#paint6_linear_78_814)"/>
<path d="M183.13 213.41C183.13 203.32 191.67 195.14 202.18 195.14C212.69 195.14 221.21 203.33 221.21 213.41L234.4 213.41C234.4 196.33 219.96 182.5 202.17 182.5C184.38 182.5 169.94 196.33 169.94 213.41L183.11 213.41L183.13 213.41Z" fill="white"/>
<path d="M72.8099 64.26L83.4299 74.88L96.7299 88.18C107.35 77.56 124.6 77.56 135.22 88.18C145.84 98.81 145.83 116.04 135.21 126.66L148.53 139.98L159.15 150.6C183 126.76 182.99 88.1 159.15 64.26C135.3 40.41 96.6599 40.41 72.8099 64.26Z" fill="url(#paint7_linear_78_814)"/>
<path d="M83.4299 74.88L96.7299 88.18C107.35 77.56 124.6 77.56 135.22 88.18C145.84 98.81 145.83 116.04 135.21 126.66L148.53 139.98C166.53 121.98 166.5 92.85 148.53 74.88C130.55 56.9 101.41 56.9 83.4299 74.88Z" fill="#105472"/>
<path d="M58.41 113.97L33.46 138.92L8.5 138.92L33.46 113.97L58.41 113.97Z" fill="url(#paint8_linear_78_814)"/>
<path d="M58.41 113.97L33.46 89.01L8.5 89.01L33.46 113.97L58.41 113.97Z" fill="url(#paint9_linear_78_814)"/>
<path d="M186.15 142.56C198.37 154.78 202.1 170.88 202.1 170.88C202.1 170.88 186.01 167.16 173.78 154.93C161.56 142.71 157.83 126.61 157.83 126.61C157.83 126.61 173.92 130.33 186.15 142.56Z" fill="white"/>
<path d="M230.42 154.93C242.64 142.71 246.37 126.61 246.37 126.61C246.37 126.61 230.28 130.33 218.05 142.56C205.83 154.78 202.1 170.88 202.1 170.88C202.1 170.88 218.19 167.16 230.42 154.93Z" fill="url(#paint10_linear_78_814)"/>
<path d="M180.85 104.88C181.64 104.88 182.29 105.52 182.29 106.31C182.29 107.1 181.65 107.74 180.85 107.74C180.05 107.74 179.41 107.1 179.41 106.31C179.41 105.52 180.05 104.88 180.85 104.88Z" fill="url(#paint11_linear_78_814)"/>
<path d="M200.16 104.88C200.95 104.88 201.6 105.52 201.6 106.31C201.6 107.1 200.96 107.74 200.16 107.74C199.36 107.74 198.72 107.1 198.72 106.31C198.72 105.52 199.36 104.88 200.16 104.88Z" fill="url(#paint12_linear_78_814)"/>
<path d="M219.48 104.88C220.27 104.88 220.92 105.52 220.92 106.31C220.92 107.1 220.28 107.74 219.48 107.74C218.68 107.74 218.04 107.1 218.04 106.31C218.04 105.52 218.68 104.88 219.48 104.88Z" fill="url(#paint13_linear_78_814)"/>
<path d="M238.8 104.88C239.59 104.88 240.24 105.52 240.24 106.31C240.24 107.1 239.6 107.74 238.8 107.74C238 107.74 237.36 107.1 237.36 106.31C237.36 105.52 238 104.88 238.8 104.88Z" fill="url(#paint14_linear_78_814)"/>
<path d="M258.11 104.88C258.9 104.88 259.55 105.52 259.55 106.31C259.55 107.1 258.91 107.74 258.11 107.74C257.31 107.74 256.67 107.1 256.67 106.31C256.67 105.52 257.31 104.88 258.11 104.88Z" fill="url(#paint15_linear_78_814)"/>
<path d="M278.87 106.31C278.87 105.52 278.225 104.88 277.43 104.88C276.635 104.88 275.99 105.52 275.99 106.31C275.99 107.1 276.635 107.74 277.43 107.74C278.225 107.74 278.87 107.1 278.87 106.31Z" fill="url(#paint16_linear_78_814)"/>
<path d="M180.85 84.63C181.64 84.63 182.29 85.27 182.29 86.05C182.29 86.83 181.65 87.48 180.85 87.48C180.05 87.48 179.41 86.84 179.41 86.05C179.41 85.26 180.05 84.63 180.85 84.63Z" fill="url(#paint17_linear_78_814)"/>
<path d="M200.16 84.63C200.95 84.63 201.6 85.27 201.6 86.05C201.6 86.83 200.96 87.48 200.16 87.48C199.36 87.48 198.72 86.84 198.72 86.05C198.72 85.26 199.36 84.63 200.16 84.63Z" fill="url(#paint18_linear_78_814)"/>
<path d="M219.48 84.63C220.27 84.63 220.92 85.27 220.92 86.05C220.92 86.83 220.28 87.48 219.48 87.48C218.68 87.48 218.04 86.84 218.04 86.05C218.04 85.26 218.68 84.63 219.48 84.63Z" fill="url(#paint19_linear_78_814)"/>
<path d="M238.8 84.63C239.59 84.63 240.24 85.27 240.24 86.05C240.24 86.83 239.6 87.48 238.8 87.48C238 87.48 237.36 86.84 237.36 86.05C237.36 85.26 238 84.63 238.8 84.63Z" fill="url(#paint20_linear_78_814)"/>
<path d="M258.11 84.63C258.9 84.63 259.55 85.27 259.55 86.05C259.55 86.83 258.91 87.48 258.11 87.48C257.31 87.48 256.67 86.84 256.67 86.05C256.67 85.26 257.31 84.63 258.11 84.63Z" fill="url(#paint21_linear_78_814)"/>
<path d="M277.43 84.63C278.22 84.63 278.87 85.27 278.87 86.05C278.87 86.83 278.23 87.48 277.43 87.48C276.63 87.48 275.99 86.84 275.99 86.05C275.99 85.26 276.63 84.63 277.43 84.63Z" fill="url(#paint22_linear_78_814)"/>
<path d="M180.85 64.37C181.64 64.37 182.29 65.01 182.29 65.8C182.29 66.59 181.65 67.23 180.85 67.23C180.05 67.23 179.41 66.59 179.41 65.8C179.41 65.01 180.05 64.37 180.85 64.37Z" fill="url(#paint23_linear_78_814)"/>
<path d="M200.16 64.37C200.95 64.37 201.6 65.01 201.6 65.8C201.6 66.59 200.96 67.23 200.16 67.23C199.36 67.23 198.72 66.59 198.72 65.8C198.72 65.01 199.36 64.37 200.16 64.37Z" fill="url(#paint24_linear_78_814)"/>
<path d="M219.48 64.37C220.27 64.37 220.92 65.01 220.92 65.8C220.92 66.59 220.28 67.23 219.48 67.23C218.68 67.23 218.04 66.59 218.04 65.8C218.04 65.01 218.68 64.37 219.48 64.37Z" fill="url(#paint25_linear_78_814)"/>
<path d="M238.8 64.37C239.59 64.37 240.24 65.01 240.24 65.8C240.24 66.59 239.6 67.23 238.8 67.23C238 67.23 237.36 66.59 237.36 65.8C237.36 65.01 238 64.37 238.8 64.37Z" fill="url(#paint26_linear_78_814)"/>
<path d="M258.11 64.37C258.9 64.37 259.55 65.01 259.55 65.8C259.55 66.59 258.91 67.23 258.11 67.23C257.31 67.23 256.67 66.59 256.67 65.8C256.67 65.01 257.31 64.37 258.11 64.37Z" fill="url(#paint27_linear_78_814)"/>
<path d="M278.87 65.8C278.87 65.0102 278.225 64.37 277.43 64.37C276.635 64.37 275.99 65.0102 275.99 65.8C275.99 66.5898 276.635 67.23 277.43 67.23C278.225 67.23 278.87 66.5898 278.87 65.8Z" fill="url(#paint28_linear_78_814)"/>
<path d="M180.85 44.12C181.64 44.12 182.29 44.76 182.29 45.55C182.29 46.34 181.65 46.97 180.85 46.97C180.05 46.97 179.41 46.33 179.41 45.55C179.41 44.77 180.05 44.12 180.85 44.12Z" fill="url(#paint29_linear_78_814)"/>
<path d="M200.16 44.12C200.95 44.12 201.6 44.76 201.6 45.55C201.6 46.34 200.96 46.97 200.16 46.97C199.36 46.97 198.72 46.33 198.72 45.55C198.72 44.77 199.36 44.12 200.16 44.12Z" fill="url(#paint30_linear_78_814)"/>
<path d="M219.48 44.12C220.27 44.12 220.92 44.76 220.92 45.55C220.92 46.34 220.28 46.97 219.48 46.97C218.68 46.97 218.04 46.33 218.04 45.55C218.04 44.77 218.68 44.12 219.48 44.12Z" fill="url(#paint31_linear_78_814)"/>
<path d="M238.8 44.12C239.59 44.12 240.24 44.76 240.24 45.55C240.24 46.34 239.6 46.97 238.8 46.97C238 46.97 237.36 46.33 237.36 45.55C237.36 44.77 238 44.12 238.8 44.12Z" fill="url(#paint32_linear_78_814)"/>
<path d="M258.11 44.12C258.9 44.12 259.55 44.76 259.55 45.55C259.55 46.34 258.91 46.97 258.11 46.97C257.31 46.97 256.67 46.33 256.67 45.55C256.67 44.77 257.31 44.12 258.11 44.12Z" fill="url(#paint33_linear_78_814)"/>
<path d="M277.43 44.12C278.22 44.12 278.87 44.76 278.87 45.55C278.87 46.34 278.23 46.97 277.43 46.97C276.63 46.97 275.99 46.33 275.99 45.55C275.99 44.77 276.63 44.12 277.43 44.12Z" fill="url(#paint34_linear_78_814)"/>
<path d="M246.54 170.09L246.54 222L330.29 222L330.29 170.09L246.54 170.09Z" fill="url(#paint35_linear_78_814)"/>
<path d="M270.88 191.79C270.88 187.979 267.791 184.89 263.98 184.89C260.169 184.89 257.08 187.979 257.08 191.79C257.08 195.601 260.169 198.69 263.98 198.69C267.791 198.69 270.88 195.601 270.88 191.79Z" fill="white"/>
<path d="M295.32 191.79C295.32 187.979 292.231 184.89 288.42 184.89C284.609 184.89 281.52 187.979 281.52 191.79C281.52 195.601 284.609 198.69 288.42 198.69C292.231 198.69 295.32 195.601 295.32 191.79Z" fill="white"/>
<path d="M312.86 184.89C316.67 184.89 319.76 187.98 319.76 191.79C319.76 195.6 316.67 198.69 312.86 198.69C309.05 198.69 305.96 195.6 305.96 191.79C305.96 187.98 309.05 184.89 312.86 184.89Z" fill="white"/>
<path d="M246.54 126.61L246.54 170.09L290.02 170.09L290.02 126.61L246.54 126.61Z" fill="url(#paint36_linear_78_814)"/>
<path d="M268.28 136.92C274.59 136.92 279.71 142.04 279.71 148.35C279.71 154.66 274.59 159.78 268.28 159.78C261.97 159.78 256.85 154.66 256.85 148.35C256.85 142.04 261.97 136.92 268.28 136.92Z" fill="white"/>
<path d="M290.02 126.61L330.29 170.09L290.02 170.09L290.02 126.61Z" fill="url(#paint37_linear_78_814)"/>
</g>
<defs>
<linearGradient id="paint0_linear_78_814" x1="29.07" y1="188.47" x2="105.14" y2="132.99" gradientUnits="userSpaceOnUse">
<stop stop-color="#344868"/>
<stop offset="1" stop-color="#0EAAC3"/>
</linearGradient>
<linearGradient id="paint1_linear_78_814" x1="7.16" y1="244.17" x2="80.31" y2="173.68" gradientUnits="userSpaceOnUse">
<stop stop-color="#ECFC7F"/>
<stop offset="1" stop-color="#0EAAC3"/>
</linearGradient>
<linearGradient id="paint2_linear_78_814" x1="202.18" y1="120.76" x2="202.18" y2="175.88" gradientUnits="userSpaceOnUse">
<stop stop-color="#344868"/>
<stop offset="1" stop-color="#0EAAC3"/>
</linearGradient>
<linearGradient id="paint3_linear_78_814" x1="180.01" y1="213.5" x2="180.01" y2="126.61" gradientUnits="userSpaceOnUse">
<stop stop-color="#344868"/>
<stop offset="1" stop-color="#0EAAC3"/>
</linearGradient>
<linearGradient id="paint4_linear_78_814" x1="38.95" y1="54.83" x2="210.6" y2="256.22" gradientUnits="userSpaceOnUse">
<stop stop-color="#ECFC7F"/>
<stop offset="1" stop-color="#0EAAC3"/>
</linearGradient>
<linearGradient id="paint5_linear_78_814" x1="24.63" y1="64.17" x2="24.63" y2="32.1" gradientUnits="userSpaceOnUse">
<stop stop-color="#ECFC7F"/>
<stop offset="1" stop-color="#0EAAC3"/>
</linearGradient>
<linearGradient id="paint6_linear_78_814" x1="202.19" y1="213.49" x2="202.19" y2="170.95" gradientUnits="userSpaceOnUse">
<stop stop-color="#ECFC7F"/>
<stop offset="1" stop-color="#0EAAC3"/>
</linearGradient>
<linearGradient id="paint7_linear_78_814" x1="116.001" y1="107.422" x2="159.17" y2="64.2534" gradientUnits="userSpaceOnUse">
<stop stop-color="#ECFC7F"/>
<stop offset="1" stop-color="#0EAAC3"/>
</linearGradient>
<linearGradient id="paint8_linear_78_814" x1="23.17" y1="141.56" x2="52.35" y2="98.67" gradientUnits="userSpaceOnUse">
<stop stop-color="#344868"/>
<stop offset="1" stop-color="#0EAAC3"/>
</linearGradient>
<linearGradient id="paint9_linear_78_814" x1="13.48" y1="80.02" x2="44.73" y2="113.6" gradientUnits="userSpaceOnUse">
<stop stop-color="#ECFC7F"/>
<stop offset="1" stop-color="#0EAAC3"/>
</linearGradient>
<linearGradient id="paint10_linear_78_814" x1="224.24" y1="170.87" x2="224.24" y2="126.61" gradientUnits="userSpaceOnUse">
<stop stop-color="#ECFC7F"/>
<stop offset="1" stop-color="#0EAAC3"/>
</linearGradient>
<linearGradient id="paint11_linear_78_814" x1="37.2406" y1="253.61" x2="296.921" y2="-12.759" gradientUnits="userSpaceOnUse">
<stop stop-color="#ECFC7F"/>
<stop offset="1" stop-color="#0EAAC3"/>
</linearGradient>
<linearGradient id="paint12_linear_78_814" x1="47.1797" y1="263.24" x2="306.87" y2="-3.15043" gradientUnits="userSpaceOnUse">
<stop stop-color="#ECFC7F"/>
<stop offset="1" stop-color="#0EAAC3"/>
</linearGradient>
<linearGradient id="paint13_linear_78_814" x1="57.1298" y1="272.84" x2="316.81" y2="6.46958" gradientUnits="userSpaceOnUse">
<stop stop-color="#ECFC7F"/>
<stop offset="1" stop-color="#0EAAC3"/>
</linearGradient>
<linearGradient id="paint14_linear_78_814" x1="67.0697" y1="282.46" x2="326.75" y2="16.0896" gradientUnits="userSpaceOnUse">
<stop stop-color="#ECFC7F"/>
<stop offset="1" stop-color="#0EAAC3"/>
</linearGradient>
<linearGradient id="paint15_linear_78_814" x1="77.0017" y1="292.08" x2="336.702" y2="25.7023" gradientUnits="userSpaceOnUse">
<stop stop-color="#ECFC7F"/>
<stop offset="1" stop-color="#0EAAC3"/>
</linearGradient>
<linearGradient id="paint16_linear_78_814" x1="86.9497" y1="301.7" x2="346.64" y2="35.3096" gradientUnits="userSpaceOnUse">
<stop stop-color="#ECFC7F"/>
<stop offset="1" stop-color="#0EAAC3"/>
</linearGradient>
<linearGradient id="paint17_linear_78_814" x1="27.0906" y1="243.769" x2="286.75" y2="-22.5796" gradientUnits="userSpaceOnUse">
<stop stop-color="#ECFC7F"/>
<stop offset="1" stop-color="#0EAAC3"/>
</linearGradient>
<linearGradient id="paint18_linear_78_814" x1="37.0197" y1="253.399" x2="296.699" y2="-12.971" gradientUnits="userSpaceOnUse">
<stop stop-color="#ECFC7F"/>
<stop offset="1" stop-color="#0EAAC3"/>
</linearGradient>
<linearGradient id="paint19_linear_78_814" x1="46.9798" y1="262.999" x2="306.639" y2="-3.35102" gradientUnits="userSpaceOnUse">
<stop stop-color="#ECFC7F"/>
<stop offset="1" stop-color="#0EAAC3"/>
</linearGradient>
<linearGradient id="paint20_linear_78_814" x1="56.9197" y1="272.619" x2="316.579" y2="6.25897" gradientUnits="userSpaceOnUse">
<stop stop-color="#ECFC7F"/>
<stop offset="1" stop-color="#0EAAC3"/>
</linearGradient>
<linearGradient id="paint21_linear_78_814" x1="66.8517" y1="282.239" x2="326.531" y2="15.8717" gradientUnits="userSpaceOnUse">
<stop stop-color="#ECFC7F"/>
<stop offset="1" stop-color="#0EAAC3"/>
</linearGradient>
<linearGradient id="paint22_linear_78_814" x1="76.7997" y1="291.859" x2="336.469" y2="25.4889" gradientUnits="userSpaceOnUse">
<stop stop-color="#ECFC7F"/>
<stop offset="1" stop-color="#0EAAC3"/>
</linearGradient>
<linearGradient id="paint23_linear_78_814" x1="16.9106" y1="233.95" x2="276.591" y2="-32.4191" gradientUnits="userSpaceOnUse">
<stop stop-color="#ECFC7F"/>
<stop offset="1" stop-color="#0EAAC3"/>
</linearGradient>
<linearGradient id="paint24_linear_78_814" x1="26.8497" y1="243.58" x2="286.54" y2="-22.8104" gradientUnits="userSpaceOnUse">
<stop stop-color="#ECFC7F"/>
<stop offset="1" stop-color="#0EAAC3"/>
</linearGradient>
<linearGradient id="paint25_linear_78_814" x1="36.7997" y1="253.18" x2="296.48" y2="-13.1804" gradientUnits="userSpaceOnUse">
<stop stop-color="#ECFC7F"/>
<stop offset="1" stop-color="#0EAAC3"/>
</linearGradient>
<linearGradient id="paint26_linear_78_814" x1="46.7397" y1="262.8" x2="306.42" y2="-3.57043" gradientUnits="userSpaceOnUse">
<stop stop-color="#ECFC7F"/>
<stop offset="1" stop-color="#0EAAC3"/>
</linearGradient>
<linearGradient id="paint27_linear_78_814" x1="56.6718" y1="272.43" x2="316.372" y2="6.04234" gradientUnits="userSpaceOnUse">
<stop stop-color="#ECFC7F"/>
<stop offset="1" stop-color="#0EAAC3"/>
</linearGradient>
<linearGradient id="paint28_linear_78_814" x1="66.6196" y1="282.04" x2="326.31" y2="15.6596" gradientUnits="userSpaceOnUse">
<stop stop-color="#ECFC7F"/>
<stop offset="1" stop-color="#0EAAC3"/>
</linearGradient>
<linearGradient id="paint29_linear_78_814" x1="6.76067" y1="224.12" x2="266.421" y2="-42.2387" gradientUnits="userSpaceOnUse">
<stop stop-color="#ECFC7F"/>
<stop offset="1" stop-color="#0EAAC3"/>
</linearGradient>
<linearGradient id="paint30_linear_78_814" x1="16.6897" y1="233.74" x2="276.37" y2="-32.6301" gradientUnits="userSpaceOnUse">
<stop stop-color="#ECFC7F"/>
<stop offset="1" stop-color="#0EAAC3"/>
</linearGradient>
<linearGradient id="paint31_linear_78_814" x1="26.6497" y1="243.35" x2="286.31" y2="-23.01" gradientUnits="userSpaceOnUse">
<stop stop-color="#ECFC7F"/>
<stop offset="1" stop-color="#0EAAC3"/>
</linearGradient>
<linearGradient id="paint32_linear_78_814" x1="36.5897" y1="252.96" x2="296.25" y2="-13.39" gradientUnits="userSpaceOnUse">
<stop stop-color="#ECFC7F"/>
<stop offset="1" stop-color="#0EAAC3"/>
</linearGradient>
<linearGradient id="paint33_linear_78_814" x1="46.5219" y1="262.59" x2="306.203" y2="-3.77724" gradientUnits="userSpaceOnUse">
<stop stop-color="#ECFC7F"/>
<stop offset="1" stop-color="#0EAAC3"/>
</linearGradient>
<linearGradient id="paint34_linear_78_814" x1="56.4696" y1="272.2" x2="316.14" y2="5.83003" gradientUnits="userSpaceOnUse">
<stop stop-color="#ECFC7F"/>
<stop offset="1" stop-color="#0EAAC3"/>
</linearGradient>
<linearGradient id="paint35_linear_78_814" x1="352.51" y1="133.72" x2="222.11" y2="260.53" gradientUnits="userSpaceOnUse">
<stop stop-color="#ECFC7F"/>
<stop offset="1" stop-color="#0EAAC3"/>
</linearGradient>
<linearGradient id="paint36_linear_78_814" x1="268.28" y1="170.09" x2="268.28" y2="126.61" gradientUnits="userSpaceOnUse">
<stop stop-color="#344868"/>
<stop offset="1" stop-color="#0EAAC3"/>
</linearGradient>
<linearGradient id="paint37_linear_78_814" x1="289.86" y1="165.07" x2="412.55" y2="63.9899" gradientUnits="userSpaceOnUse">
<stop stop-color="#344868"/>
<stop offset="1" stop-color="#0EAAC3"/>
</linearGradient>
<clipPath id="clip0_78_814">
<rect width="221.96" height="330.29" fill="white" transform="translate(0 222) rotate(-90)"/>
</clipPath>
</defs>
</svg>
